{
    "name": "identify_columns",
    "consumes": [],
    "produces": [],
    "init_args":
    [
        {
            "name": ,
            "type": ,
            "required":
        }
    ],
    "description":
}
